…
Toad's Turnpike has the most records established in it.

## Question 4

```r
driver_records <- three_laps %>% 
  group_by(player, track) %>% 
  summarize(record_count=n()) %>% 
  arrange(desc(record_count))
driver_records
```

```
## # A tibble: 306 × 3
## # Groups:   player [60]
##    player   track                 record_count
##    <chr>    <chr>                        <int>
##  1 Penev    Choco Mountain                  26
##  2 Lacey    D.K.'s Jungle Parkway           24
##  3 abney317 Rainbow Road                    21
##  4 MR       Toad's Turnpike                 20
##  5 MR       Frappe Snowland                 18
##  6 Penev    Toad's Turnpike                 18
##  7 abney317 Kalimari Desert                 16
##  8 MR       Sherbet Land                    16
##  9 abney317 Choco Mountain                  15
## 10 abney317 Toad's Turnpike                 15
## # … with 296 more rows
```
…
The average time for each track is shown above. Rainbow Road, as expected, has the longest average time.


```r
ungroup(three_laps)
```

```
## # A tibble: 1,211 × 9
##    track         type    short…¹ player syste…² date       time_…³  time recor…⁴
##    <chr>         <chr>   <chr>   <chr>  <chr>   <date>     <chr>   <dbl>   <dbl>
##  1 Luigi Raceway Three … No      Salam  NTSC    1997-02-15 2M 12.…  133.       1
##  2 Luigi Raceway Three … No      Booth  NTSC    1997-02-16 2M 9.9…  130.       0
##  3 Luigi Raceway Three … No      Salam  NTSC    1997-02-16 2M 8.9…  129.      12
##  4 Luigi Raceway Three … No      Salam  NTSC    1997-02-28 2M 6.9…  127.       7
##  5 Luigi Raceway Three … No      Gregg… NTSC    1997-03-07 2M 4.5…  125.      54
##  6 Luigi Raceway Three … No      Rocky… NTSC    1997-04-30 2M 2.8…  123.       0
##  7 Luigi Raceway Three … No      Launs… NTSC    1997-04-30 2M 2.8…  123.       0
##  8 Luigi Raceway Three … No      Launs… NTSC    1997-04-30 2M 2.7…  123.      27
##  9 Luigi Raceway Three … No      Launs… NTSC    1997-05-27 2M 2.2…  122.       0
## 10 Luigi Raceway Three … No      Launs… NTSC    1997-05-27 2M 2.2…  122.      64
## # … with 1,201 more rows, and abbreviated variable names ¹​shortcut,
## #   ²​system_played, ³​time_period, ⁴​record_duration
```
…
The fastest time for each track is shown above.

## Question 6

```r
three_laps %>% 
  mutate(duration_over_100=case_when(record_duration>100 ~ 1,
                                     record_duration<=100 ~ 0)) %>% 
  group_by(player) %>% 
  summarize(long_dur_count=sum(duration_over_100)) %>% 
  arrange(desc(long_dur_count))
```

```
## # A tibble: 60 × 2
##    player   long_dur_count
##    <chr>             <dbl>
##  1 MR                   81
##  2 MJ                   50
##  3 Penev                27
##  4 abney317             26
##  5 VAJ                  26
##  6 Zwartjes             24
##  7 Lacey                23
##  8 Dan                  21
##  9 Karlo                18
## 10 Booth                17
## # … with 50 more rows
```
…
# MD 4

## Question 1

```r
nfl_salaries <- read_csv("https://raw.githubusercontent.com/NicolasRestrep/223_course/main/Data/nfl_salaries.csv")
nfl_salaries
```

```
## # A tibble: 800 × 11
##     year Corner…¹ Defen…² Lineb…³ Offen…⁴ Quart…⁵ Runni…⁶ Safety Speci…⁷ Tight…⁸
##    <dbl>    <dbl>   <dbl>   <dbl>   <dbl>   <dbl>   <dbl>  <dbl>   <dbl>   <dbl>
##  1  2011 11265916  1.78e7  1.64e7  1.60e7  1.72e7  1.30e7 8.87e6 4300000 8734375
##  2  2011 11000000  1.62e7  1.56e7  1.28e7  1.6 e7  1.09e7 8.79e6 3725000 8591000
##  3  2011 10000000  1.25e7  1.18e7  1.18e7  1.44e7  9.48e6 8.28e6 3556176 8290000
##  4  2011 10000000  1.19e7  1.01e7  1.04e7  1.41e7  7.7 e6 8   e6 3500000 7723333
##  5  2011 10000000  1.18e7  1.00e7  1   e7  1.35e7  7.5 e6 7.80e6 3250000 6974666
##  6  2011  9244117  1.13e7  8.15e6  9.86e6  1.32e7  7.03e6 7.65e6 3225000 6133333
##  7  2011  8000000  1   e7  7.81e6  9.5 e6  1.30e7  6.75e6 7.55e6 2900000 5962500
##  8  2011  7900000  9.48e6  7.7 e6  9.42e6  1.26e7  6.37e6 7.5 e6 2850000 4687500
##  9  2011  7400000  8.45e6  7.2 e6  8.88e6  1.25e7  6   e6 5.74e6 2600000 4536666
## 10  2011  7000000  8.38e6  7.1 e6  8.69e6  1.13e7  4.93e6 5.25e6 2600000 4200000
## # … with 790 more rows, 1 more variable: `Wide Receiver` <dbl>, and abbreviated
## #   variable names ¹​Cornerback, ²​`Defensive Lineman`, ³​Linebacker,
## #   ⁴​`Offensive Lineman`, ⁵​Quarterback, ⁶​`Running Back`, ⁷​`Special Teamer`,
## #   ⁸​`Tight End`
```

## Question 2

```r
nfl_salaries_tidy <- nfl_salaries %>% 
  pivot_longer(names_to= "position",
               values_to= "salary",
               cols= -year)
nfl_salaries_tidy
```

```
## # A tibble: 8,000 × 3
##     year position            salary
##    <dbl> <chr>                <dbl>
##  1  2011 Cornerback        11265916
##  2  2011 Defensive Lineman 17818000
##  3  2011 Linebacker        16420000
##  4  2011 Offensive Lineman 15960000
##  5  2011 Quarterback       17228125
##  6  2011 Running Back      12955000
##  7  2011 Safety             8871428
##  8  2011 Special Teamer     4300000
##  9  2011 Tight End          8734375
## 10  2011 Wide Receiver     16250000
## # … with 7,990 more rows
```
…
Over time, there has been an increase in extremely high NFL Quarterback salaries. In 2011, there were not salaries above 20 million, yet we see the prevalence of these high salaries steadily increase over time. 

## Question 4

```r
avg_nfl_salaries <- nfl_salaries_tidy %>% 
  group_by(position, year) %>% 
  summarise(avg_salary=mean(salary, na.rm=TRUE))
avg_nfl_salaries
```

```
## # A tibble: 80 × 3
## # Groups:   position [10]
##    position           year avg_salary
##    <chr>             <dbl>      <dbl>
##  1 Cornerback         2011   3037766.
##  2 Cornerback         2012   3132916.
##  3 Cornerback         2013   2901798.
##  4 Cornerback         2014   3038278.
##  5 Cornerback         2015   3758543.
##  6 Cornerback         2016   4201470.
##  7 Cornerback         2017   4125692.
##  8 Cornerback         2018   4659704.
##  9 Defensive Lineman  2011   4306995.
## 10 Defensive Lineman  2012   4693730.
## # … with 70 more rows
```
…
